{
  "data": {
    "curPage": 1,
    "datas": [
      {
        "apkLink": "",
        "audit": 1,
        "author": "xiaobinAndroid421726260",
        "canEdit": false,
        "chapterId": 294,
        "chapterName": "完整项目",
        "collect": false,
        "courseId": 13,
        "desc": "项目中完全kotlin编写，采用学习的协程和MVVM架构；\r\n下载导入本地aar包、7.1.1gradle插件、libs.versions.toml管理版本\r\nSplashScreenApp启动画面；\r\n随意切换主题颜色，适配深色模式等\r\n因为项目比较简单，我并没有采用仓库存储库等方式，而且直接简单调用，如果实际项目中，尽量让项目符合架构模式，但也不要为了架构而架构，而是让项目变得简单易读易懂。",
        "descMd": "",
        "envelopePic": "https://www.wanandroid.com/blogimgs/d7bbe689-7bab-4db4-938f-24d5e4854302.png",
        "fresh": false,
        "host": "",
        "id": 21652,
        "link": "https://www.wanandroid.com/blog/show/3146",
        "niceDate": "2022-03-03 22:31",
        "niceShareDate": "2022-03-03 22:31",
        "origin": "",
        "prefix": "",
        "projectLink": "https://github.com/xiaobinAndroid421726260/KotlinMvvmWanAndroid",
        "publishTime": 1646317861000,
        "realSuperChapterId": 293,
        "selfVisible": 0,
        "shareDate": 1646317861000,
        "shareUser": "",
        "superChapterId": 294,
        "superChapterName": "开源项目主Tab",
        "tags": [
          {
            "name": "项目",
            "url": "/project/list/1?cid=294"
          }
        ],
        "title": "一个Kotlin + 协程 + MVVM的wanandroid项目",
        "type": 0,
        "userId": -1,
        "visible": 1,
        "zan": 0
      },
      {
        "apkLink": "",
        "audit": 1,
        "author": "xuexiangjys",
        "canEdit": false,
        "chapterId": 294,
        "chapterName": "完整项目",
        "collect": false,
        "courseId": 13,
        "desc": "一个拓展性极强的Android任务执行框架。可自由定义和组合任务来实现你想要的功能，尤其适用于处理复杂的业务流程，可灵活添加前置任务或者调整执行顺序。例如：应用的启动初始化流程。",
        "descMd": "",
        "envelopePic": "https://www.wanandroid.com/resources/image/pc/default_project_img.jpg",
        "fresh": false,
        "host": "",
        "id": 21502,
        "link": "https://www.wanandroid.com/blog/show/3130",
        "niceDate": "2022-02-20 20:59",
        "niceShareDate": "2022-02-20 20:59",
        "origin": "",
        "prefix": "",
        "projectLink": "https://github.com/xuexiangjys/XTask",
        "publishTime": 1645361942000,
        "realSuperChapterId": 293,
        "selfVisible": 0,
        "shareDate": 1645361942000,
        "shareUser": "",
        "superChapterId": 294,
        "superChapterName": "开源项目主Tab",
        "tags": [
          {
            "name": "项目",
            "url": "/project/list/1?cid=294"
          }
        ],
        "title": "一个拓展性极强的Android任务执行框架",
        "type": 0,
        "userId": -1,
        "visible": 1,
        "zan": 0
      },
      {
        "apkLink": "",
        "audit": 1,
        "author": "manqianzhuang",
        "canEdit": false,
        "chapterId": 294,
        "chapterName": "完整项目",
        "collect": false,
        "courseId": 13,
        "desc": "项目使用Android官方的Jetpack Compose完成，遵循MVVM架构思路，以下为本项目用到的框架：\r\njetpack compose, viewModel, retrofit, okhttp, coroutine/flow, paging3，\r\nroom, accompanist, hilt, gson, glide/picasso, navigation.",
        "descMd": "",
        "envelopePic": "https://www.wanandroid.com/resources/image/pc/default_project_img.jpg",
        "fresh": false,
        "host": "",
        "id": 20275,
        "link": "https://www.wanandroid.com/blog/show/3090",
        "niceDate": "2021-10-24 22:51",
        "niceShareDate": "2021-10-24 22:51",
        "origin": "",
        "prefix": "",
        "projectLink": "https://github.com/manqianzhuang/HamApp.git",
        "publishTime": 1635087073000,
        "realSuperChapterId": 293,
        "selfVisible": 0,
        "shareDate": 1635087073000,
        "shareUser": "",
        "superChapterId": 294,
        "superChapterName": "开源项目主Tab",
        "tags": [
          {
            "name": "项目",
            "url": "/project/list/1?cid=294"
          }
        ],
        "title": "用Jetpack Compose做一个完成度较高的WanAndroid app",
        "type": 0,
        "userId": -1,
        "visible": 1,
        "zan": 0
      },
      {
        "apkLink": "",
        "audit": 1,
        "author": "seasonZhu",
        "canEdit": false,
        "chapterId": 294,
        "chapterName": "完整项目",
        "collect": false,
        "courseId": 13,
        "desc": "一个乱入安卓圈的码农使用RxSwift编写的wanandroid客户端。\r\n所谓Rx一通百通，欢迎大家围观，点赞，PR。\r\n一起学习。",
        "descMd": "",
        "envelopePic": "https://www.wanandroid.com/resources/image/pc/default_project_img.jpg",
        "fresh": false,
        "host": "",
        "id": 19850,
        "link": "https://www.wanandroid.com/blog/show/3072",
        "niceDate": "2021-09-14 21:59",
        "niceShareDate": "2021-09-14 21:59",
        "origin": "",
        "prefix": "",
        "projectLink": "https://github.com/seasonZhu/RxStudy",
        "publishTime": 1631627948000,
        "realSuperChapterId": 293,
        "selfVisible": 0,
        "shareDate": 1631627948000,
        "shareUser": "",
        "superChapterId": 294,
        "superChapterName": "开源项目主Tab",
        "tags": [
          {
            "name": "项目",
            "url": "/project/list/1?cid=294"
          }
        ],
        "title": "RxSwift编写wanandroid客户端",
        "type": 0,
        "userId": -1,
        "visible": 1,
        "zan": 0
      },
      {
        "apkLink": "",
        "audit": 1,
        "author": "WangJie0822",
        "canEdit": false,
        "chapterId": 294,
        "chapterName": "完整项目",
        "collect": false,
        "courseId": 13,
        "desc": "一个基于 WanAndroid 开发API的项目。",
        "descMd": "",
        "envelopePic": "https://www.wanandroid.com/blogimgs/1f8c5ff6-efd1-4dc2-915a-d538b193f349.png",
        "fresh": false,
        "host": "",
        "id": 19663,
        "link": "https://www.wanandroid.com/blog/show/3065",
        "niceDate": "2021-09-01 22:27",
        "niceShareDate": "2021-09-01 22:27",
        "origin": "",
        "prefix": "",
        "projectLink": "https://github.com/WangJie0822/SampleProject",
        "publishTime": 1630506467000,
        "realSuperChapterId": 293,
        "selfVisible": 0,
        "shareDate": 1630506467000,
        "shareUser": "",
        "superChapterId": 294,
        "superChapterName": "开源项目主Tab",
        "tags": [
          {
            "name": "项目",
            "url": "/project/list/1?cid=294"
          }
        ],
        "title": "玩Android项目 Kotlin + MVVM + Jetpack + DataBinding",
        "type": 0,
        "userId": -1,
        "visible": 1,
        "zan": 0
      },
      {
        "apkLink": "",
        "audit": 1,
        "author": "AndroidBBQ",
        "canEdit": false,
        "chapterId": 294,
        "chapterName": "完整项目",
        "collect": false,
        "courseId": 13,
        "desc": "kotin、协程、MVVM、jetpack、组件化、buildSrc、koin、BRAVH、约束布局等",
        "descMd": "",
        "envelopePic": "https://www.wanandroid.com/blogimgs/a25aa26d-dbab-4e0a-a0fc-5a805b4d7d18.png",
        "fresh": false,
        "host": "",
        "id": 19476,
        "link": "https://www.wanandroid.com/blog/show/3052",
        "niceDate": "2021-08-19 21:10",
        "niceShareDate": "2021-08-19 21:10",
        "origin": "",
        "prefix": "",
        "projectLink": "https://github.com/AndroidBBQ/WanAndroid-jetpack",
        "publishTime": 1629378621000,
        "realSuperChapterId": 293,
        "selfVisible": 0,
        "shareDate": 1629378621000,
        "shareUser": "",
        "superChapterId": 294,
        "superChapterName": "开源项目主Tab",
        "tags": [
          {
            "name": "项目",
            "url": "/project/list/1?cid=294"
          }
        ],
        "title": "Wandroid客户端",
        "type": 0,
        "userId": -1,
        "visible": 1,
        "zan": 0
      },
      {
        "apkLink": "",
        "audit": 1,
        "author": "wo5813288",
        "canEdit": false,
        "chapterId": 294,
        "chapterName": "完整项目",
        "collect": false,
        "courseId": 13,
        "desc": "更新学习flutter，所以系统的做一款应用来实践一下。这款应用也开发了很多内容了，后续还要继续更新功能。开发这个项目主要也是熟悉flutter的树形结构的写法和UI组件，项目中也用到了flutter比较流行的第三方框架。",
        "descMd": "",
        "envelopePic": "https://www.wanandroid.com/blogimgs/e092cd25-3e43-42c4-a7eb-b1ebc60ce02a.png",
        "fresh": false,
        "host": "",
        "id": 18624,
        "link": "https://www.wanandroid.com/blog/show/3020",
        "niceDate": "2021-06-15 22:51",
        "niceShareDate": "2021-06-15 22:51",
        "origin": "",
        "prefix": "",
        "projectLink": "https://github.com/wo5813288/wan_giao",
        "publishTime": 1623768707000,
        "realSuperChapterId": 293,
        "selfVisible": 0,
        "shareDate": 1623768707000,
        "shareUser": "",
        "superChapterId": 294,
        "superChapterName": "开源项目主Tab",
        "tags": [
          {
            "name": "项目",
            "url": "/project/list/1?cid=294"
          }
        ],
        "title": "Flutter开发的WanAndroid",
        "type": 0,
        "userId": -1,
        "visible": 1,
        "zan": 0
      },
      {
        "apkLink": "",
        "audit": 1,
        "author": "fmtjava",
        "canEdit": false,
        "chapterId": 294,
        "chapterName": "完整项目",
        "collect": false,
        "courseId": 13,
        "desc": "基于Jetpack Compose实现的一款集新闻、视频、美图、天气等功能的资讯App,持续完善中...",
        "descMd": "",
        "envelopePic": "https://www.wanandroid.com/resources/image/pc/default_project_img.jpg",
        "fresh": false,
        "host": "",
        "id": 18623,
        "link": "https://www.wanandroid.com/blog/show/3019",
        "niceDate": "2021-06-15 22:50",
        "niceShareDate": "2021-06-15 22:50",
        "origin": "",
        "prefix": "",
        "projectLink": "https://github.com/fmtjava/Jetpack_Compose_News",
        "publishTime": 1623768656000,
        "realSuperChapterId": 293,
        "selfVisible": 0,
        "shareDate": 1623768656000,
        "shareUser": "",
        "superChapterId": 294,
        "superChapterName": "开源项目主Tab",
        "tags": [
          {
            "name": "项目",
            "url": "/project/list/1?cid=294"
          }
        ],
        "title": "基于Jetpack Compose实现的一款集新闻、视频、美图、天气等功能的资讯App,持续完善中...",
        "type": 0,
        "userId": -1,
        "visible": 1,
        "zan": 0
      },
      {
        "apkLink": "",
        "audit": 1,
        "author": "fuusy",
        "canEdit": false,
        "chapterId": 294,
        "chapterName": "完整项目",
        "collect": false,
        "courseId": 13,
        "desc": "该项目主要以组件化+Jetpack+MVVM为架构，使用Kotlin语言，集合了更新的Jetpack组件，如Navigation、Paging3、Room等，另外还加上了依赖注入框架Koin和图片加载框架Coin。\r\n网络请求部分使用OkHttp+Retrofit，配合Kotlin的协程，完成了对Retrofit和协程的请求封装，结合LoadSir进行状态切换管理\r\n\r\n",
        "descMd": "",
        "envelopePic": "https://www.wanandroid.com/resources/image/pc/default_project_img.jpg",
        "fresh": false,
        "host": "",
        "id": 18414,
        "link": "https://www.wanandroid.com/blog/show/3009",
        "niceDate": "2021-05-24 23:02",
        "niceShareDate": "2021-05-24 23:02",
        "origin": "",
        "prefix": "",
        "projectLink": "https://github.com/fuusy/wanandroid_jetpack_kt",
        "publishTime": 1621868542000,
        "realSuperChapterId": 293,
        "selfVisible": 0,
        "shareDate": 1621868542000,
        "shareUser": "",
        "superChapterId": 294,
        "superChapterName": "开源项目主Tab",
        "tags": [
          {
            "name": "项目",
            "url": "/project/list/1?cid=294"
          }
        ],
        "title": "组件化+Jetpack+MVVM项目实战，涉及Jetpack相关组件，协程+Retrofit，Paging3+Room等",
        "type": 0,
        "userId": -1,
        "visible": 1,
        "zan": 0
      },
      {
        "apkLink": "",
        "audit": 1,
        "author": "miaowmiaow",
        "canEdit": false,
        "chapterId": 294,
        "chapterName": "完整项目",
        "collect": false,
        "courseId": 13,
        "desc": "采用 Kotlin 语言编写，单Activity多Fragment，MVVM + ViewModel + LiveData + Retrofit + 协程 + ViewBinding等架构设计的项目，项目结构清晰，代码简介优雅",
        "descMd": "",
        "envelopePic": "https://www.wanandroid.com/blogimgs/6d454437-1e59-4804-9f75-7255b0e816a9.png",
        "fresh": false,
        "host": "",
        "id": 18320,
        "link": "https://www.wanandroid.com/blog/show/3005",
        "niceDate": "2021-05-16 23:08",
        "niceShareDate": "2021-05-16 23:08",
        "origin": "",
        "prefix": "",
        "projectLink": "https://github.com/miaowmiaow/FragmentProject.git",
        "publishTime": 1621177682000,
        "realSuperChapterId": 293,
        "selfVisible": 0,
        "shareDate": 1621177682000,
        "shareUser": "",
        "superChapterId": 294,
        "superChapterName": "开源项目主Tab",
        "tags": [
          {
            "name": "项目",
            "url": "/project/list/1?cid=294"
          }
        ],
        "title": "可能是东半球更简洁的玩安卓客户端",
        "type": 0,
        "userId": -1,
        "visible": 1,
        "zan": 0
      },
      {
        "apkLink": "",
        "audit": 1,
        "author": "SheHuan",
        "canEdit": false,
        "chapterId": 294,
        "chapterName": "完整项目",
        "collect": false,
        "courseId": 13,
        "desc": "基于 Vue2 + Vant 的移动版 玩Android 客户端",
        "descMd": "",
        "envelopePic": "https://www.wanandroid.com/blogimgs/70ff438b-ca4e-420e-86f1-53387271d012.png",
        "fresh": false,
        "host": "",
        "id": 18251,
        "link": "https://www.wanandroid.com/blog/show/2998",
        "niceDate": "2021-05-09 23:44",
        "niceShareDate": "2021-05-09 23:44",
        "origin": "",
        "prefix": "",
        "projectLink": "https://github.com/SheHuan/wanandroid-vue",
        "publishTime": 1620575078000,
        "realSuperChapterId": 293,
        "selfVisible": 0,
        "shareDate": 1620575078000,
        "shareUser": "",
        "superChapterId": 294,
        "superChapterName": "开源项目主Tab",
        "tags": [
          {
            "name": "项目",
            "url": "/project/list/1?cid=294"
          }
        ],
        "title": "基于 Vue2 + Vant 的移动版 玩Android 客户端",
        "type": 0,
        "userId": -1,
        "visible": 1,
        "zan": 0
      },
      {
        "apkLink": "",
        "audit": 1,
        "author": "Theoneee",
        "canEdit": false,
        "chapterId": 294,
        "chapterName": "完整项目",
        "collect": false,
        "courseId": 13,
        "desc": "码云地址：https://gitee.com/theoneee/the-base-mvvm",
        "descMd": "",
        "envelopePic": "https://www.wanandroid.com/blogimgs/ae8bea90-df9c-42db-a6ef-2a0ef1c93120.png",
        "fresh": false,
        "host": "",
        "id": 17828,
        "link": "https://www.wanandroid.com/blog/show/2976",
        "niceDate": "2021-04-01 22:20",
        "niceShareDate": "2021-04-01 22:20",
        "origin": "",
        "prefix": "",
        "projectLink": "https://github.com/Theoneee/TheBase-MVVM",
        "publishTime": 1617286820000,
        "realSuperChapterId": 293,
        "selfVisible": 0,
        "shareDate": 1617286820000,
        "shareUser": "",
        "superChapterId": 294,
        "superChapterName": "开源项目主Tab",
        "tags": [
          {
            "name": "项目",
            "url": "/project/list/1?cid=294"
          }
        ],
        "title": "QMUI+Jetpack组件搭建的一个基础框架写的一个玩安卓App",
        "type": 0,
        "userId": -1,
        "visible": 1,
        "zan": 0
      },
      {
        "apkLink": "",
        "audit": 1,
        "author": "zhujiang521",
        "canEdit": false,
        "chapterId": 294,
        "chapterName": "完整项目",
        "collect": false,
        "courseId": 13,
        "desc": "打造 Compose 版本的 Banner\r\n",
        "descMd": "",
        "envelopePic": "https://www.wanandroid.com/resources/image/pc/default_project_img.jpg",
        "fresh": false,
        "host": "",
        "id": 17805,
        "link": "https://www.wanandroid.com/blog/show/2972",
        "niceDate": "2021-03-30 23:22",
        "niceShareDate": "2021-03-30 23:22",
        "origin": "",
        "prefix": "",
        "projectLink": "https://github.com/zhujiang521/Banner",
        "publishTime": 1617117768000,
        "realSuperChapterId": 293,
        "selfVisible": 0,
        "shareDate": 1617117768000,
        "shareUser": "",
        "superChapterId": 294,
        "superChapterName": "开源项目主Tab",
        "tags": [
          {
            "name": "项目",
            "url": "/project/list/1?cid=294"
          }
        ],
        "title": "打造 Compose 版本的 Banner",
        "type": 0,
        "userId": -1,
        "visible": 1,
        "zan": 0
      },
      {
        "apkLink": "",
        "audit": 1,
        "author": "yechaoa",
        "canEdit": false,
        "chapterId": 294,
        "chapterName": "完整项目",
        "collect": false,
        "courseId": 13,
        "desc": "玩安卓的flutter版本，首先非常感谢鸿洋提供的api，然后就是这个项目目前还在完善中，但是常用的widget 、功能也基本都用到了，没用到的后续也会强行用到的 /huaji。",
        "descMd": "",
        "envelopePic": "https://www.wanandroid.com/blogimgs/c10a298f-818f-4237-8bfd-8424f6d0de3e.png",
        "fresh": false,
        "host": "",
        "id": 17715,
        "link": "https://www.wanandroid.com/blog/show/2968",
        "niceDate": "2021-03-22 23:59",
        "niceShareDate": "2021-03-22 23:59",
        "origin": "",
        "prefix": "",
        "projectLink": "https://github.com/yechaoa/wanandroid_flutter",
        "publishTime": 1616428756000,
        "realSuperChapterId": 293,
        "selfVisible": 0,
        "shareDate": 1616428756000,
        "shareUser": "",
        "superChapterId": 294,
        "superChapterName": "开源项目主Tab",
        "tags": [
          {
            "name": "项目",
            "url": "/project/list/1?cid=294"
          }
        ],
        "title": "Flutter版玩安卓",
        "type": 0,
        "userId": -1,
        "visible": 1,
        "zan": 0
      },
      {
        "apkLink": "",
        "audit": 1,
        "author": "SusionSuc",
        "canEdit": false,
        "chapterId": 294,
        "chapterName": "完整项目",
        "collect": false,
        "courseId": 13,
        "desc": "1. API简单易用\r\n2. 支持长图\r\n3. 缩放手势、拖拽退出\r\n4. 稳定、几乎无crash",
        "descMd": "",
        "envelopePic": "https://www.wanandroid.com/blogimgs/422c7435-1328-461f-9552-c43326263c77.png",
        "fresh": false,
        "host": "",
        "id": 17714,
        "link": "https://www.wanandroid.com/blog/show/2967",
        "niceDate": "2021-03-22 23:59",
        "niceShareDate": "2021-03-22 23:59",
        "origin": "",
        "prefix": "",
        "projectLink": "https://github.com/SusionSuc/DraggableImageViewer",
        "publishTime": 1616428740000,
        "realSuperChapterId": 293,
        "selfVisible": 0,
        "shareDate": 1616428740000,
        "shareUser": "",
        "superChapterId": 294,
        "superChapterName": "开源项目主Tab",
        "tags": [
          {
            "name": "项目",
            "url": "/project/list/1?cid=294"
          }
        ],
        "title": "仿微信、B站大图浏览、拖拽退出。",
        "type": 0,
        "userId": -1,
        "visible": 1,
        "zan": 0
      }
    ],
    "offset": 0,
    "over": false,
    "pageCount": 18,
    "size": 15,
    "total": 267
  },
  "errorCode": 0,
  "errorMsg": ""
}